Case study · NetSurvival.jl
…
colrec.time5 .= 0.0
colrec.status5 .= Bool(true)
for i in 1:nrow(colrec)
    colrec.time5[i] = min(colrec.time[i], round(5*365.241))
    if colrec.time[i] > 5*365.241
        colrec.status5[i] = false
    end
end
Now that we have defined our own time and status variables according to the observations made, we can apply the different non parametric methods for relative survival.

e1 = fit(EdererI, @formula(Surv(time5,status5)~1), colrec, slopop)

1827×5 DataFrame
  Row │ Sₑ          ∂Λₑ            σₑ             lower_95_CI  upper_95_CI 
      │ Float64     Float64        Float64        Float64      Float64     
──────┼────────────────────────────────────────────────────────────────────
    1 │   0.997105    0.00289458     0.000710541     0.995718     0.998495
    2 │   0.995215    0.00189576     0.000918415     0.993425     0.997008
    3 │   0.992152    0.00307809     0.0011755       0.989869     0.99444
    4 │   0.988753    0.00342609     0.00140734      0.986029     0.991484
    5 │   0.986023    0.00276087     0.00157124      0.982991     0.989064
    6 │   0.983292    0.00276916     0.00172041      0.979982     0.986614
    7 │   0.981734    0.00158443     0.00180287      0.978271     0.98521
    8 │   0.976991    0.00483135     0.00202379      0.973124     0.980874
  ⋮   │     ⋮             ⋮              ⋮             ⋮            ⋮
 1821 │   0.456555   -0.000133262    0.017137        0.441475     0.47215
 1822 │   0.456616   -0.000133307    0.017137        0.441534     0.472213
 1823 │   0.456677   -0.000133276    0.017137        0.441593     0.472276
 1824 │   0.456527    0.000328197    0.0171432       0.441442     0.472127
 1825 │   0.456377    0.000328384    0.0171494       0.441292     0.471977
 1826 │   0.456016    0.000790464    0.0171618       0.440932     0.471616
 1827 │ NaN         NaN            NaN             NaN          NaN
                                                          1812 rows omitted
With the EdererI method, after $1826$ days have passed, we can say that the survival rate at this mark is around $0.456$, in the hypothetical world where patients can only die of cancer.

crude_e1 = CrudeMortality(e1)
println(crude_e1.Λₒ[1826], " , ", crude_e1.Λₑ[1826], " , ", crude_e1.Λₚ[1826])

0.6368404579125495 , 0.5158124650476975 , 0.12102799286485198
Out of the 0.63 patients that have died, according to the EdererI method, 0.51 died because of colorectal cancer and 0.12 died of other causes.

e2 = fit(EdererII, @formula(Surv(time5,status5)~1), colrec, slopop)

1827×5 DataFrame
  Row │ Sₑ          ∂Λₑ            σₑ             lower_95_CI  upper_95_CI 
      │ Float64     Float64        Float64        Float64      Float64     
──────┼────────────────────────────────────────────────────────────────────
    1 │   0.997105    0.00289456     0.000710541     0.995718     0.998495
    2 │   0.995215    0.00189611     0.000918415     0.993425     0.997008
    3 │   0.992151    0.00307874     0.0011755       0.989868     0.994439
    4 │   0.988751    0.00342711     0.00140734      0.986027     0.991482
    5 │   0.98602     0.00276208     0.00157124      0.982988     0.989061
    6 │   0.983288    0.00277059     0.00172041      0.979978     0.986609
    7 │   0.981728    0.00158595     0.00180287      0.978265     0.985203
    8 │   0.976983    0.00483311     0.00202379      0.973116     0.980866
  ⋮   │     ⋮             ⋮              ⋮             ⋮            ⋮
 1821 │   0.441193   -0.000115156    0.017137        0.42662      0.456263
 1822 │   0.441243   -0.000115176    0.017137        0.426669     0.456316
 1823 │   0.441294   -0.000115213    0.017137        0.426718     0.456368
 1824 │   0.441142    0.00034624     0.0171432       0.426565     0.456216
 1825 │   0.440989    0.000346509    0.0171494       0.426412     0.456063
 1826 │   0.440632    0.000808582    0.0171618       0.426057     0.455706
 1827 │ NaN         NaN            NaN             NaN          NaN
                                                          1812 rows omitted
Similarily, the EdererII method, also known as the conditional method, shows that at the $5$ year mark, the survival probability is of $0.44$ in this hypothetical world.

crude_e2 = CrudeMortality(e2)
println(crude_e2.Λₒ[1826], " , ", crude_e2.Λₑ[1826], " , ", crude_e2.Λₚ[1826])

0.6368404579125495 , 0.5334518856851324 , 0.10338857222741712
Here, out of the 0.63 patients that have dued, 0.53 are due to colorectal cancer and 0.1 due to other causes.

pp = fit(PoharPerme, @formula(Surv(time5,status5)~1), colrec, slopop)

1827×5 DataFrame
  Row │ Sₑ          ∂Λₑ            σₑ             lower_95_CI  upper_95_CI 
      │ Float64     Float64        Float64        Float64      Float64     
──────┼────────────────────────────────────────────────────────────────────
    1 │   0.997105    0.00289493     0.000710632     0.995717     0.998495
    2 │   0.995214    0.0018967      0.0009186       0.993424     0.997007
    3 │   0.992149    0.00307987     0.00117581      0.989865     0.994438
    4 │   0.988748    0.00342788     0.0014077       0.986024     0.99148
    5 │   0.986016    0.00276316     0.0015717       0.982983     0.989058
    6 │   0.983283    0.00277109     0.00172089      0.979972     0.986605
    7 │   0.981722    0.00158763     0.0018035       0.978258     0.985199
    8 │   0.976973    0.00483737     0.00202472      0.973104     0.980858
  ⋮   │     ⋮             ⋮              ⋮             ⋮            ⋮
 1821 │   0.441496   -0.000148885    0.0178917       0.426282     0.457252
 1822 │   0.441561   -0.000148937    0.0178917       0.426345     0.45732
 1823 │   0.441627   -0.000149005    0.0178917       0.426409     0.457389
 1824 │   0.441403    0.00050879     0.0179038       0.426182     0.457167
 1825 │   0.441281    0.000276025    0.0179089       0.42606      0.457045
 1826 │   0.440922    0.000813485    0.0179221       0.425702     0.456685
 1827 │ NaN         NaN            NaN             NaN          NaN
                                                          1812 rows omitted
…
pp_sex = fit(PoharPerme, @formula(Surv(time5,status5)~sex), colrec, slopop)

2-element Vector{PoharPerme}:
 1827×5 DataFrame
  Row │ Sₑ          ∂Λₑ            σₑ             lower_95_CI  upper_95_CI 
      │ Float64     Float64        Float64        Float64      Float64     
──────┼────────────────────────────────────────────────────────────────────
    1 │   0.997395    0.00260516     0.000912233     0.995613     0.99918
    2 │   0.996005    0.0013935      0.00113895      0.993784     0.998231
    3 │   0.994006    0.00200685     0.0013965       0.991289     0.996731
    4 │   0.989877    0.00415374     0.00180598      0.98638      0.993387
    5 │   0.987877    0.00202035     0.00198057      0.98405      0.99172
    6 │   0.985876    0.00202572     0.00214176      0.981746     0.990023
    7 │   0.984179    0.0017218      0.00227138      0.979807     0.98857
    8 │   0.980042    0.00420359     0.00254971      0.975156     0.984952
  ⋮   │     ⋮             ⋮              ⋮             ⋮            ⋮
 1821 │   0.434354   -0.000164858    0.0249706       0.413608     0.45614
 1822 │   0.434425   -0.000164904    0.0249706       0.413676     0.456216
 1823 │   0.434497   -0.000164985    0.0249706       0.413744     0.456291
 1824 │   0.434041    0.00104885     0.0250001       0.413286     0.455839
 1825 │   0.434113   -0.00016497     0.0250001       0.413354     0.455914
 1826 │   0.433858    0.000586891    0.0250114       0.413103     0.455656
 1827 │ NaN         NaN            NaN             NaN          NaN
                                                          1812 rows omitted
 1827×5 DataFrame
  Row │ Sₑ          ∂Λₑ            σₑ            lower_95_CI  upper_95_CI 
      │ Float64     Float64        Float64       Float64      Float64     
──────┼───────────────────────────────────────────────────────────────────
    1 │   0.99675     0.00325029     0.00111873     0.994567     0.998938
    2 │   0.994244    0.00251419     0.00149396     0.991337     0.997159
    3 │   0.989871    0.0043981      0.00198035     0.986036     0.99372
    4 │   0.987363    0.00253401     0.00221726     0.983081     0.991663
    5 │   0.983733    0.00367643     0.00251903     0.978888     0.988602
    6 │   0.980104    0.00368904     0.00278998     0.974759     0.985478
    7 │   0.97871     0.00142212     0.00289239     0.973177     0.984274
    8 │   0.97321     0.00561896     0.00324789     0.967035     0.979425
  ⋮   │     ⋮             ⋮             ⋮             ⋮            ⋮
 1821 │   0.450254   -0.000129989    0.025504       0.428301     0.473333
 1822 │   0.450313   -0.000130047    0.025504       0.428356     0.473395
 1823 │   0.450371   -0.000130101    0.025504       0.428412     0.473456
 1824 │   0.45043    -0.000130144    0.025504       0.428468     0.473518
 1825 │   0.450071    0.000797147    0.0255209      0.428112     0.473156
 1826 │   0.449584    0.00108151     0.0255496      0.427625     0.472671
 1827 │ NaN         NaN            NaN            NaN          NaN
                                                         1812 rows omitted
…
colrec.age65 .= Bool(false)
for i in 1:nrow(colrec)
    if colrec.age[i] >= 65*365.241
        colrec.age65[i] = true
    end
end

pp_age65 = fit(PoharPerme, @formula(Surv(time5,status5)~age65), colrec, slopop)

2-element Vector{PoharPerme}:
 1827×5 DataFrame
  Row │ Sₑ          ∂Λₑ            σₑ             lower_95_CI  upper_95_CI 
      │ Float64     Float64        Float64        Float64      Float64     
──────┼────────────────────────────────────────────────────────────────────
    1 │   0.998757    0.00124316     0.000736423     0.997316     1.0002
    2 │   0.998364    0.000393321    0.000850606     0.996701     1.00003
    3 │   0.997546    0.00081943     0.00104227      0.99551      0.999586
    4 │   0.996302    0.00124656     0.00127733      0.993811     0.9988
    5 │   0.994634    0.00167498     0.00153633      0.991643     0.997633
    6 │   0.993815    0.000822853    0.00165105      0.990604     0.997036
    7 │   0.992571    0.0012516      0.00180981      0.989057     0.996098
    8 │   0.991328    0.00125297     0.00195603      0.987534     0.995135
  ⋮   │     ⋮             ⋮              ⋮             ⋮            ⋮
 1821 │   0.501759   -4.24092e-5     0.0219507       0.48063      0.523817
 1822 │   0.50178    -4.24082e-5     0.0219507       0.48065      0.523839
 1823 │   0.501801   -4.24168e-5     0.0219507       0.48067      0.523861
 1824 │   0.501823   -4.24415e-5     0.0219507       0.480691     0.523883
 1825 │   0.501844   -4.24482e-5     0.0219507       0.480711     0.523906
 1826 │   0.501409    0.000867059    0.0219695       0.480277     0.523471
 1827 │ NaN         NaN            NaN             NaN          NaN
                                                          1812 rows omitted
 1827×5 DataFrame
  Row │ Sₑ          ∂Λₑ            σₑ            lower_95_CI  upper_95_CI 
      │ Float64     Float64        Float64       Float64      Float64     
──────┼───────────────────────────────────────────────────────────────────
    1 │   0.996032    0.00396827     0.0010703      0.993944     0.998123
    2 │   0.993167    0.00287628     0.00141168     0.990423     0.995919
    3 │   0.988642    0.00455641     0.00181945     0.985122     0.992173
    4 │   0.983839    0.0048581      0.00217215     0.979659     0.988036
    5 │   0.980416    0.00347923     0.00239706     0.97582      0.985033
    6 │   0.97644     0.00405544     0.00263427     0.971411     0.981494
    7 │   0.974672    0.00180987     0.00273909     0.969454     0.979919
    8 │   0.967646    0.00720934     0.0030984      0.961787     0.97354
  ⋮   │     ⋮             ⋮             ⋮             ⋮            ⋮
 1821 │   0.402335   -0.0002352      0.0269335      0.381647     0.424144
 1822 │   0.402429   -0.000235279    0.0269335      0.381737     0.424244
 1823 │   0.402524   -0.000235379    0.0269335      0.381826     0.424344
 1824 │   0.402139    0.000955393    0.0269598      0.381442     0.42396
 1825 │   0.401925    0.000534307    0.0269708      0.38123      0.423743
 1826 │   0.401615    0.000770012    0.0269896      0.380922     0.423432
 1827 │ NaN         NaN            NaN            NaN          NaN
                                                         1812 rows omitted
…
