Examples · NetSurvival.jl
…
GitHub
Examples
In this section, we will be showcasing an example on how the key functions in the package work (with a comparaison to the results obtained in the relsurv package in R). 
In this example, we will be using the dataset colrec which refers to patients with colon and rectal cancer diagnosed in 1994-2000. By loading the slopop rate table based on the Slovenian population, we will be able to apply the Pohar Perme estimator as well as the Grafféo log-rank test for net survival analysis purposes.

using NetSurvival, RateTables
pp1 = fit(PoharPerme, @formula(Surv(time,status)~1), colrec, slopop)

8149×5 DataFrame
  Row │ Sₑ          ∂Λₑ            σₑ             lower_95_CI  upper_95_CI 
      │ Float64     Float64        Float64        Float64      Float64     
──────┼────────────────────────────────────────────────────────────────────
    1 │   0.997105    0.00289493     0.000710632    0.995717      0.998495
    2 │   0.995214    0.0018967      0.0009186      0.993424      0.997007
    3 │   0.992149    0.00307987     0.00117581     0.989865      0.994438
    4 │   0.988748    0.00342788     0.0014077      0.986024      0.99148
    5 │   0.986016    0.00276316     0.0015717      0.982983      0.989058
    6 │   0.983283    0.00277109     0.00172089     0.979972      0.986605
    7 │   0.981722    0.00158763     0.0018035      0.978258      0.985199
    8 │   0.976973    0.00483737     0.00202472     0.973104      0.980858
  ⋮   │     ⋮             ⋮              ⋮             ⋮            ⋮
 8143 │   0.390001   -0.00054201     0.740969       0.0912751     1.6664
 8144 │   0.390212   -0.00054201     0.740969       0.0913245     1.6673
 8145 │   0.390424   -0.00054201     0.740969       0.091374      1.66821
 8146 │   0.390636   -0.00054201     0.740969       0.0914235     1.66911
 8147 │   0.390847   -0.00054201     0.740969       0.0914731     1.67002
 8148 │   0.391059   -0.00054201     0.740969       0.0915227     1.67092
 8149 │ NaN         NaN            NaN            NaN           NaN
                                                          8134 rows omitted

pp2 = fit(PoharPerme, @formula(Surv(time,status)~sex), colrec, slopop)

2-element Vector{PoharPerme}:
 8140×5 DataFrame
  Row │ Sₑ          ∂Λₑ            σₑ             lower_95_CI  upper_95_CI 
      │ Float64     Float64        Float64        Float64      Float64     
──────┼────────────────────────────────────────────────────────────────────
    1 │   0.997395    0.00260516     0.000912233     0.995613     0.99918
    2 │   0.996005    0.0013935      0.00113895      0.993784     0.998231
    3 │   0.994006    0.00200685     0.0013965       0.991289     0.996731
    4 │   0.989877    0.00415374     0.00180598      0.98638      0.993387
    5 │   0.987877    0.00202035     0.00198057      0.98405      0.99172
    6 │   0.985876    0.00202572     0.00214176      0.981746     0.990023
    7 │   0.984179    0.0017218      0.00227138      0.979807     0.98857
    8 │   0.980042    0.00420359     0.00254971      0.975156     0.984952
  ⋮   │     ⋮             ⋮              ⋮             ⋮            ⋮
 8134 │   0.376855   -0.000260642    0.201684        0.253805     0.559562
 8135 │   0.376953   -0.000260642    0.201684        0.253871     0.559708
 8136 │   0.377052   -0.000260642    0.201684        0.253938     0.559854
 8137 │   0.37715    -0.000260642    0.201684        0.254004     0.56
 8138 │   0.377248   -0.000260642    0.201684        0.25407      0.560146
 8139 │   0.377347   -0.000260642    0.201684        0.254136     0.560292
 8140 │ NaN         NaN            NaN             NaN          NaN
                                                          8125 rows omitted
 8149×5 DataFrame
  Row │ Sₑ          ∂Λₑ            σₑ            lower_95_CI  upper_95_CI 
      │ Float64     Float64        Float64       Float64      Float64     
──────┼───────────────────────────────────────────────────────────────────
    1 │   0.99675     0.00325029     0.00111873    0.994567      0.998938
    2 │   0.994244    0.00251419     0.00149396    0.991337      0.997159
    3 │   0.989871    0.0043981      0.00198035    0.986036      0.99372
    4 │   0.987363    0.00253401     0.00221726    0.983081      0.991663
    5 │   0.983733    0.00367643     0.00251903    0.978888      0.988602
    6 │   0.980104    0.00368904     0.00278998    0.974759      0.985478
    7 │   0.97871     0.00142212     0.00289239    0.973177      0.984274
    8 │   0.97321     0.00561896     0.00324789    0.967035      0.979425
  ⋮   │     ⋮             ⋮             ⋮             ⋮            ⋮
 8143 │   0.412643   -0.00054201     0.982142      0.0601968     2.82862
 8144 │   0.412867   -0.00054201     0.982142      0.0602295     2.83016
 8145 │   0.41309    -0.00054201     0.982142      0.0602621     2.83169
 8146 │   0.413314   -0.00054201     0.982142      0.0602948     2.83323
 8147 │   0.413538   -0.00054201     0.982142      0.0603275     2.83476
 8148 │   0.413762   -0.00054201     0.982142      0.0603602     2.8363
 8149 │ NaN         NaN            NaN           NaN           NaN
                                                         8134 rows omitted
…
