Getting Started · NetSurvival.jl
…
source
Example
We will illustrate with an example using the dataset colrec, which comprises $5971$ patients diagnosed with colon or rectal cancer  between 1994 and 2000. This dataset is sourced from the Slovenia cancer registry. Given the high probability that the patients are Slovenian, we will be using the Slovenian mortality table slopop as reference for the populational rates. Subsequently, we can apply various non-parametric estimators for net survival analysis.
N.B.Mortality tables may vary in structure, with options such as the addition or removal of specific covariates. To confirm that the mortality table is in the correct format, please refer to the documentation of RateTables.jl, or directly extract it from there.

By examining slopop, we notice it contains information regarding age and year, as expected for mortality tables. Additionally, it incorporates the covariate sex, which has two possible entries (:male or :female).
Pohar Perme

using NetSurvival, RateTables
pp1 = fit(PoharPerme, @formula(Surv(time,status)~1), colrec, slopop)

8149×5 DataFrame
  Row │ Sₑ          ∂Λₑ            σₑ             lower_95_CI  upper_95_CI 
      │ Float64     Float64        Float64        Float64      Float64     
──────┼────────────────────────────────────────────────────────────────────
    1 │   0.997105    0.00289493     0.000710632    0.995717      0.998495
    2 │   0.995214    0.0018967      0.0009186      0.993424      0.997007
    3 │   0.992149    0.00307987     0.00117581     0.989865      0.994438
    4 │   0.988748    0.00342788     0.0014077      0.986024      0.99148
    5 │   0.986016    0.00276316     0.0015717      0.982983      0.989058
    6 │   0.983283    0.00277109     0.00172089     0.979972      0.986605
    7 │   0.981722    0.00158763     0.0018035      0.978258      0.985199
    8 │   0.976973    0.00483737     0.00202472     0.973104      0.980858
  ⋮   │     ⋮             ⋮              ⋮             ⋮            ⋮
 8143 │   0.390001   -0.00054201     0.740969       0.0912751     1.6664
 8144 │   0.390212   -0.00054201     0.740969       0.0913245     1.6673
 8145 │   0.390424   -0.00054201     0.740969       0.091374      1.66821
 8146 │   0.390636   -0.00054201     0.740969       0.0914235     1.66911
 8147 │   0.390847   -0.00054201     0.740969       0.0914731     1.67002
 8148 │   0.391059   -0.00054201     0.740969       0.0915227     1.67092
 8149 │ NaN         NaN            NaN            NaN           NaN
                                                          8134 rows omitted
…
